…
``` r
# Get Glottolog macroareas and language counts
languages.geo <- languages.dialects.geo %>% filter(level=="language") %>% filter(macroarea!="") %>% group_by(glottocode)
languages.geo
```

    ## # A tibble: 8,371 x 7
    ## # Groups:   glottocode [8,371]
    ##    glottocode name            isocodes level  macroarea latitude longitude
    ##    <chr>      <chr>           <chr>    <chr>  <chr>        <dbl>     <dbl>
    ##  1 aari1239   Aari            aiw      langu… Africa        5.95     36.6 
    ##  2 aari1240   Aariya          aay      langu… Eurasia      NA        NA   
    ##  3 aasa1238   Aasax           aas      langu… Africa       -4.01     36.9 
    ##  4 abad1241   Abadi           kbt      langu… Papunesia    -9.03    147.  
    ##  5 abag1245   Abaga           abg      langu… Papunesia    -6.12    146.  
    ##  6 abai1240   Abai Sungai     abf      langu… Papunesia     5.55    118.  
    ##  7 abai1241   Abai Tubu-Abai… ""       langu… Eurasia      NA        NA   
    ##  8 aban1242   Abanyom         abm      langu… Africa        6.31      8.63
    ##  9 abau1245   Abau            aau      langu… Papunesia    -3.97    141.  
    ## 10 abaz1241   Abaza           abq      langu… Eurasia      41.1      42.7 
    ## # ... with 8,361 more rows
…
